module gitlab.com/slax0rr/go-lmu-setup-api

go 1.22.1

require (
	github.com/docker/go-connections v0.5.0
	github.com/gin-gonic/gin v1.10.0
	github.com/go-playground/validator/v10 v10.20.0
	github.com/golang-jwt/jwt/v5 v5.2.1
	github.com/golang-migrate/migrate/v4 v4.17.1
	github.com/google/uuid v1.6.0
	github.com/jackc/pgx/v5 v5.5.5
	github.com/rs/zerolog v1.32.0
	github.com/stretchr/testify v1.9.0
	github.com/testcontainers/testcontainers-go v0.33.0
	github.com/testcontainers/testcontainers-go/modules/compose v0.33.0
	gotest.tools/v3 v3.5.1
)

require (
	dario.cat/mergo v1.0.0 // indirect
	github.com/AdaLogics/go-fuzz-headers v0.0.0-20230811130428-ced1acdcaa24 // indirect
	github.com/AlecAivazis/survey/v2 v2.3.7 // indirect
	github.com/Azure/go-ansiterm v0.0.0-20230124172434-306776ec8161 // indirect
	github.com/Masterminds/semver/v3 v3.2.1 // indirect
	github.com/Microsoft/go-winio v0.6.2 // indirect
	github.com/Microsoft/hcsshim v0.11.5 // indirect
	github.com/acarl005/stripansi v0.0.0-20180116102854-5a71ef0e047d // indirect
	github.com/aws/aws-sdk-go-v2 v1.24.1 // indirect
	github.com/aws/aws-sdk-go-v2/config v1.26.6 // indirect
	github.com/aws/aws-sdk-go-v2/credentials v1.16.16 // indirect
	github.com/aws/aws-sdk-go-v2/feature/ec2/imds v1.14.11 // indirect
	github.com/aws/aws-sdk-go-v2/internal/configsources v1.2.10 // indirect
	github.com/aws/aws-sdk-go-v2/internal/endpoints/v2 v2.5.10 // indirect
	github.com/aws/aws-sdk-go-v2/internal/ini v1.7.3 // indirect
	github.com/aws/aws-sdk-go-v2/service/internal/accept-encoding v1.10.4 // indirect
	github.com/aws/aws-sdk-go-v2/service/internal/presigned-url v1.10.10 // indirect
	github.com/aws/aws-sdk-go-v2/service/sso v1.18.7 // indirect
	github.com/aws/aws-sdk-go-v2/service/ssooidc v1.21.7 // indirect
	github.com/aws/aws-sdk-go-v2/service/sts v1.26.7 // indirect
	github.com/aws/smithy-go v1.19.0 // indirect
	github.com/beorn7/perks v1.0.1 // indirect
	github.com/buger/goterm v1.0.4 // indirect
	github.com/bytedance/sonic v1.11.6 // indirect
	github.com/bytedance/sonic/loader v0.1.1 // indirect
	github.com/cenkalti/backoff/v4 v4.2.1 // indirect
	github.com/cespare/xxhash/v2 v2.2.0 // indirect
	github.com/cloudwego/base64x v0.1.4 // indirect
	github.com/cloudwego/iasm v0.2.0 // indirect
	github.com/compose-spec/compose-go/v2 v2.1.3 // indirect
	github.com/containerd/console v1.0.4 // indirect
	github.com/containerd/containerd v1.7.18 // indirect
	github.com/containerd/continuity v0.4.3 // indirect
	github.com/containerd/errdefs v0.1.0 // indirect
	github.com/containerd/log v0.1.0 // indirect
	github.com/containerd/platforms v0.2.1 // indirect
	github.com/containerd/ttrpc v1.2.5 // indirect
	github.com/containerd/typeurl/v2 v2.1.1 // indirect
	github.com/cpuguy83/dockercfg v0.3.1 // indirect
	github.com/davecgh/go-spew v1.1.1 // indirect
	github.com/distribution/reference v0.6.0 // indirect
	github.com/docker/buildx v0.15.1 // indirect
	github.com/docker/cli v27.0.3+incompatible // indirect
	github.com/docker/compose/v2 v2.28.1 // indirect
	github.com/docker/distribution v2.8.3+incompatible // indirect
	github.com/docker/docker v27.1.1+incompatible // indirect
	github.com/docker/docker-credential-helpers v0.8.0 // indirect
	github.com/docker/go v1.5.1-1.0.20160303222718-d30aec9fd63c // indirect
	github.com/docker/go-metrics v0.0.1 // indirect
	github.com/docker/go-units v0.5.0 // indirect
	github.com/eiannone/keyboard v0.0.0-20220611211555-0d226195f203 // indirect
	github.com/emicklei/go-restful/v3 v3.11.0 // indirect
	github.com/felixge/httpsnoop v1.0.4 // indirect
	github.com/fsnotify/fsevents v0.2.0 // indirect
	github.com/fvbommel/sortorder v1.0.2 // indirect
	github.com/gabriel-vasile/mimetype v1.4.3 // indirect
	github.com/gin-contrib/sse v0.1.0 // indirect
	github.com/go-logr/logr v1.4.1 // indirect
	github.com/go-logr/stdr v1.2.2 // indirect
	github.com/go-ole/go-ole v1.2.6 // indirect
	github.com/go-openapi/jsonpointer v0.19.6 // indirect
	github.com/go-openapi/jsonreference v0.20.2 // indirect
	github.com/go-openapi/swag v0.22.3 // indirect
	github.com/go-playground/locales v0.14.1 // indirect
	github.com/go-playground/universal-translator v0.18.1 // indirect
	github.com/go-viper/mapstructure/v2 v2.0.0 // indirect
	github.com/goccy/go-json v0.10.2 // indirect
	github.com/gofrs/flock v0.8.1 // indirect
	github.com/gogo/googleapis v1.4.1 // indirect
	github.com/gogo/protobuf v1.3.2 // indirect
	github.com/golang/protobuf v1.5.4 // indirect
	github.com/google/gnostic-models v0.6.8 // indirect
	github.com/google/go-cmp v0.6.0 // indirect
	github.com/google/gofuzz v1.2.0 // indirect
	github.com/google/shlex v0.0.0-20191202100458-e7afc7fbc510 // indirect
	github.com/gorilla/mux v1.8.1 // indirect
	github.com/gorilla/websocket v1.5.0 // indirect
	github.com/grpc-ecosystem/grpc-gateway/v2 v2.16.0 // indirect
	github.com/hashicorp/errwrap v1.1.0 // indirect
	github.com/hashicorp/go-cleanhttp v0.5.2 // indirect
	github.com/hashicorp/go-multierror v1.1.1 // indirect
	github.com/hashicorp/go-version v1.7.0 // indirect
	github.com/imdario/mergo v0.3.16 // indirect
	github.com/in-toto/in-toto-golang v0.5.0 // indirect
	github.com/inconshreveable/mousetrap v1.1.0 // indirect
	github.com/jackc/pgerrcode v0.0.0-20220416144525-469b46aa5efa // indirect
	github.com/jackc/pgpassfile v1.0.0 // indirect
	github.com/jackc/pgservicefile v0.0.0-20221227161230-091c0ba34f0a // indirect
	github.com/jackc/puddle/v2 v2.2.1 // indirect
	github.com/jonboulle/clockwork v0.4.0 // indirect
	github.com/josharian/intern v1.0.0 // indirect
	github.com/json-iterator/go v1.1.12 // indirect
	github.com/kballard/go-shellquote v0.0.0-20180428030007-95032a82bc51 // indirect
	github.com/klauspost/compress v1.17.4 // indirect
	github.com/klauspost/cpuid/v2 v2.2.7 // indirect
	github.com/leodido/go-urn v1.4.0 // indirect
	github.com/lufia/plan9stats v0.0.0-20211012122336-39d0f177ccd0 // indirect
	github.com/magiconair/properties v1.8.7 // indirect
	github.com/mailru/easyjson v0.7.7 // indirect
	github.com/mattn/go-colorable v0.1.13 // indirect
	github.com/mattn/go-isatty v0.0.20 // indirect
	github.com/mattn/go-runewidth v0.0.15 // indirect
	github.com/mattn/go-shellwords v1.0.12 // indirect
	github.com/matttproud/golang_protobuf_extensions v1.0.4 // indirect
	github.com/mgutz/ansi v0.0.0-20170206155736-9520e82c474b // indirect
	github.com/miekg/pkcs11 v1.1.1 // indirect
	github.com/mitchellh/mapstructure v1.5.0 // indirect
	github.com/moby/buildkit v0.14.1 // indirect
	github.com/moby/docker-image-spec v1.3.1 // indirect
	github.com/moby/locker v1.0.1 // indirect
	github.com/moby/patternmatcher v0.6.0 // indirect
	github.com/moby/spdystream v0.2.0 // indirect
	github.com/moby/sys/mountinfo v0.7.1 // indirect
	github.com/moby/sys/sequential v0.5.0 // indirect
	github.com/moby/sys/signal v0.7.0 // indirect
	github.com/moby/sys/symlink v0.2.0 // indirect
	github.com/moby/sys/user v0.1.0 // indirect
	github.com/moby/term v0.5.0 // indirect
	github.com/modern-go/concurrent v0.0.0-20180306012644-bacd9c7ef1dd // indirect
	github.com/modern-go/reflect2 v1.0.2 // indirect
	github.com/morikuni/aec v1.0.0 // indirect
	github.com/munnerz/goautoneg v0.0.0-20191010083416-a7dc8b61c822 // indirect
	github.com/mxk/go-flowrate v0.0.0-20140419014527-cca7078d478f // indirect
	github.com/opencontainers/go-digest v1.0.0 // indirect
	github.com/opencontainers/image-spec v1.1.0 // indirect
	github.com/pelletier/go-toml v1.9.5 // indirect
	github.com/pelletier/go-toml/v2 v2.2.2 // indirect
	github.com/pkg/errors v0.9.1 // indirect
	github.com/pmezard/go-difflib v1.0.0 // indirect
	github.com/power-devops/perfstat v0.0.0-20210106213030-5aafc221ea8c // indirect
	github.com/prometheus/client_golang v1.17.0 // indirect
	github.com/prometheus/client_model v0.5.0 // indirect
	github.com/prometheus/common v0.44.0 // indirect
	github.com/prometheus/procfs v0.12.0 // indirect
	github.com/r3labs/sse v0.0.0-20210224172625-26fe804710bc // indirect
	github.com/rivo/uniseg v0.2.0 // indirect
	github.com/rogpeppe/go-internal v1.12.0 // indirect
	github.com/secure-systems-lab/go-securesystemslib v0.4.0 // indirect
	github.com/serialx/hashring v0.0.0-20200727003509-22c0c7ab6b1b // indirect
	github.com/shibumi/go-pathspec v1.3.0 // indirect
	github.com/shirou/gopsutil/v3 v3.23.12 // indirect
	github.com/shoenig/go-m1cpu v0.1.6 // indirect
	github.com/sirupsen/logrus v1.9.3 // indirect
	github.com/skratchdot/open-golang v0.0.0-20200116055534-eef842397966 // indirect
	github.com/spf13/cobra v1.8.1 // indirect
	github.com/spf13/pflag v1.0.5 // indirect
	github.com/stretchr/objx v0.5.2 // indirect
	github.com/theupdateframework/notary v0.7.0 // indirect
	github.com/tilt-dev/fsnotify v1.4.8-0.20220602155310-fff9c274a375 // indirect
	github.com/tklauser/go-sysconf v0.3.12 // indirect
	github.com/tklauser/numcpus v0.6.1 // indirect
	github.com/tonistiigi/fsutil v0.0.0-20240424095704-91a3fc46842c // indirect
	github.com/tonistiigi/units v0.0.0-20180711220420-6950e57a87ea // indirect
	github.com/tonistiigi/vt100 v0.0.0-20240514184818-90bafcd6abab // indirect
	github.com/twitchyliquid64/golang-asm v0.15.1 // indirect
	github.com/ugorji/go/codec v1.2.12 // indirect
	github.com/xeipuuv/gojsonpointer v0.0.0-20190905194746-02993c407bfb // indirect
	github.com/xeipuuv/gojsonreference v0.0.0-20180127040603-bd5ef7bd5415 // indirect
	github.com/xeipuuv/gojsonschema v1.2.0 // indirect
	github.com/yusufpapurcu/wmi v1.2.3 // indirect
	go.opentelemetry.io/contrib/instrumentation/google.golang.org/grpc/otelgrpc v0.46.1 // indirect
	go.opentelemetry.io/contrib/instrumentation/net/http/httptrace/otelhttptrace v0.46.1 // indirect
	go.opentelemetry.io/contrib/instrumentation/net/http/otelhttp v0.49.0 // indirect
	go.opentelemetry.io/otel v1.24.0 // indirect
	go.opentelemetry.io/otel/exporters/otlp/otlpmetric v0.42.0 // indirect
	go.opentelemetry.io/otel/exporters/otlp/otlpmetric/otlpmetricgrpc v0.42.0 // indirect
	go.opentelemetry.io/otel/exporters/otlp/otlpmetric/otlpmetrichttp v0.42.0 // indirect
	go.opentelemetry.io/otel/exporters/otlp/otlptrace v1.21.0 // indirect
	go.opentelemetry.io/otel/exporters/otlp/otlptrace/otlptracegrpc v1.21.0 // indirect
	go.opentelemetry.io/otel/exporters/otlp/otlptrace/otlptracehttp v1.21.0 // indirect
	go.opentelemetry.io/otel/metric v1.24.0 // indirect
	go.opentelemetry.io/otel/sdk v1.24.0 // indirect
	go.opentelemetry.io/otel/sdk/metric v1.21.0 // indirect
	go.opentelemetry.io/otel/trace v1.24.0 // indirect
	go.opentelemetry.io/proto/otlp v1.0.0 // indirect
	go.uber.org/atomic v1.7.0 // indirect
	go.uber.org/mock v0.4.0 // indirect
	golang.org/x/arch v0.8.0 // indirect
	golang.org/x/crypto v0.24.0 // indirect
	golang.org/x/exp v0.0.0-20240112132812-db7319d0e0e3 // indirect
	golang.org/x/net v0.26.0 // indirect
	golang.org/x/oauth2 v0.18.0 // indirect
	golang.org/x/sync v0.7.0 // indirect
	golang.org/x/sys v0.21.0 // indirect
	golang.org/x/term v0.21.0 // indirect
	golang.org/x/text v0.16.0 // indirect
	golang.org/x/time v0.3.0 // indirect
	google.golang.org/appengine v1.6.8 // indirect
	google.golang.org/genproto v0.0.0-20231016165738-49dd2c1f3d0b // indirect
	google.golang.org/genproto/googleapis/api v0.0.0-20240318140521-94a12d6c2237 // indirect
	google.golang.org/genproto/googleapis/rpc v0.0.0-20240318140521-94a12d6c2237 // indirect
	google.golang.org/grpc v1.64.1 // indirect
	google.golang.org/protobuf v1.34.1 // indirect
	gopkg.in/cenkalti/backoff.v1 v1.1.0 // indirect
	gopkg.in/inf.v0 v0.9.1 // indirect
	gopkg.in/yaml.v2 v2.4.0 // indirect
	gopkg.in/yaml.v3 v3.0.1 // indirect
	k8s.io/api v0.29.2 // indirect
	k8s.io/apimachinery v0.29.2 // indirect
	k8s.io/client-go v0.29.2 // indirect
	k8s.io/klog/v2 v2.110.1 // indirect
	k8s.io/kube-openapi v0.0.0-20231010175941-2dd684a91f00 // indirect
	k8s.io/utils v0.0.0-20230726121419-3b25d923346b // indirect
	sigs.k8s.io/json v0.0.0-20221116044647-bc3834ca7abd // indirect
	sigs.k8s.io/structured-merge-diff/v4 v4.4.1 // indirect
	sigs.k8s.io/yaml v1.3.0 // indirect
	tags.cncf.io/container-device-interface v0.7.2 // indirect
)
