{
  "id": "00000000-0000-0000-0000-000000000000",
  "passphrase": "foobar",
  "name": "90 minute race - save strat",
  "data": {
    "race_info": {
      "fuel_use": 500,
      "energy_use": 520,
      "race_time": 5400000,
      "laptime": 89000,
      "pit_length": 45000
    },
    "laps": 60,
    "safe_laps": 61,
    "min_required": {
      "fuel": 30000,
      "energy": 31200
    },
    "safe_required": {
      "fuel": 30500,
      "energy": 31800
    },
    "fuel_ratio": 96,
    "pit_strategy": {
      "type": "fuel_save",
      "stops": 2,
      "stints": [
        {
          "stint_number": 1,
          "laps": 11,
          "target_use": {
            "fuel": 441,
            "energy": 455
          },
          "stint_required": {
            "fuel": 4850,
            "energy": 5000
          },
          "fuel_ratio": 97,
          "pit_length": 0,
          "completed_laps": 10
        },
        {
          "stint_number": 2,
          "laps": 20,
          "save": 1,
          "target_use": {
            "fuel": 481,
            "energy": 500
          },
          "stint_required": {
            "fuel": 9700,
            "energy": 10000
          },
          "fuel_ratio": 97,
          "pit_length": 45000
        },
        {
          "stint_number": 3,
          "laps": 20,
          "save": 1,
          "target_use": {
            "fuel": 481,
            "energy": 500
          },
          "stint_required": {
            "fuel": 9700,
            "energy": 10000
          },
          "fuel_ratio": 97,
          "pit_length": 45000
        }
      ]
    }
  },
  "race_progress": {
    "remaining_time": 4620000,
    "laps_complete": 10,
    "fuel_tank": 4850,
    "energy_tank": 5000
  }
}