{
  "laps": 64,
  "safe_laps": 65,
  "min_required": {
    "fuel": 18900,
    "energy": 21000
  },
  "safe_required": {
    "fuel": 19200,
    "energy": 21400
  },
  "fuel_ratio": 90,
  "strategies": [
    {
      "type": "flat_out",
      "stops": 2,
      "stints": [
        {
          "stint_number": 1,
          "laps": 30,
          "target_use": {
            "fuel": 301,
            "energy": 334
          },
          "stint_required": {
            "fuel": 9100,
            "energy": 10000
          },
          "fuel_ratio": 91,
          "pit_length": 0
        },
        {
          "stint_number": 2,
          "laps": 30,
          "target_use": {
            "fuel": 301,
            "energy": 334
          },
          "stint_required": {
            "fuel": 9100,
            "energy": 10000
          },
          "fuel_ratio": 91,
          "pit_length": 90000
        },
        {
          "stint_number": 3,
          "laps": 5,
          "target_use": {
            "fuel": 295,
            "energy": 328
          },
          "stint_required": {
            "fuel": 1500,
            "energy": 1700
          },
          "fuel_ratio": 89,
          "pit_length": 90000
        }
      ]
    },
    {
      "type": "fuel_save",
      "stops": 1,
      "stints": [
        {
          "stint_number": 1,
          "laps": 33,
          "save": 3,
          "target_use": {
            "fuel": 274,
            "energy": 304
          },
          "stint_required": {
            "fuel": 9100,
            "energy": 10000
          },
          "fuel_ratio": 91,
          "pit_length": 0
        },
        {
          "stint_number": 2,
          "laps": 32,
          "save": 2,
          "target_use": {
            "fuel": 282,
            "energy": 313
          },
          "stint_required": {
            "fuel": 9100,
            "energy": 10000
          },
          "fuel_ratio": 91,
          "pit_length": 90000
        }
      ]
    }
  ],
  "recomm_strat": "fuel_save"
}