{
  "id": "00000000-0000-0000-0000-000000000000",
  "passphrase": "foobar",
  "name": "extended stints with partially complete stint",
  "data": {
    "race_info": {
      "fuel_use": 422,
      "energy_use": 510,
      "race_time": 7200000,
      "laptime": 139000,
      "pit_length": 90000
    },
    "laps": 51,
    "safe_laps": 52,
    "min_required": {
      "fuel": 21600,
      "energy": 26100
    },
    "safe_required": {
      "fuel": 22000,
      "energy": 26600
    },
    "fuel_ratio": 83,
    "pit_strategy": {
      "type": "flat_out",
      "stops": 2,
      "stints": [
        {
          "stint_number": 1,
          "laps": 11,
          "target_use": {
            "fuel": 410,
            "energy": 500
          },
          "stint_required": {
            "fuel": 4500,
            "energy": 5500
          },
          "fuel_ratio": 83,
          "pit_length": 0,
          "completed_laps": 10
        },
        {
          "stint_number": 2,
          "laps": 21,
          "save": 2,
          "target_use": {
            "fuel": 395,
            "energy": 477
          },
          "stint_required": {
            "fuel": 8300,
            "energy": 10000
          },
          "fuel_ratio": 83,
          "pit_length": 90000
        },
        {
          "stint_number": 3,
          "laps": 10,
          "target_use": {
            "fuel": 422,
            "energy": 510
          },
          "stint_required": {
            "fuel": 4300,
            "energy": 5100
          },
          "fuel_ratio": 85,
          "pit_length": 90000
        }
      ]
    }
  },
  "race_progress": {
    "remaining_time": 5700000,
    "laps_complete": 10,
    "fuel_tank": 4500,
    "energy_tank": 5500
  }
}